<svg width="64" height="57" viewBox="0 0 64 57" fill="none" xmlns="http://www.w3.org/2000/svg">
<g clip-path="url(#clip0_136_623)">
<path d="M63.9778 28.3889C63.9778 30.3889 62.3111 31.9556 60.4222 31.9556H56.8667L56.9444 49.7556C56.9444 50.0556 56.9222 50.3556 56.8889 50.6556V52.4444C56.8889 54.9 54.9 56.8889 52.4444 56.8889H50.6667C50.5444 56.8889 50.4222 56.8889 50.3 56.8778C50.1444 56.8889 49.9889 56.8889 49.8333 56.8889H46.2222H43.5556C41.1 56.8889 39.1111 54.9 39.1111 52.4444V49.7778V42.6667C39.1111 40.7 37.5222 39.1111 35.5556 39.1111H28.4444C26.4778 39.1111 24.8889 40.7 24.8889 42.6667V49.7778V52.4444C24.8889 54.9 22.9 56.8889 20.4444 56.8889H17.7778H14.2333C14.0667 56.8889 13.9 56.8778 13.7333 56.8667C13.6 56.8778 13.4667 56.8889 13.3333 56.8889H11.5556C9.1 56.8889 7.11111 54.9 7.11111 52.4444V40C7.11111 39.9 7.11111 39.7889 7.12222 39.6889V31.9556H3.55556C1.55556 31.9556 0 30.4 0 28.3889C0 27.3889 0.333333 26.5 1.11111 25.7222L29.6 0.888889C30.3778 0.111111 31.2667 0 32.0444 0C32.8222 0 33.7111 0.222222 34.3778 0.777778L62.7556 25.7222C63.6444 26.5 64.0889 27.3889 63.9778 28.3889Z" fill="black"/>
</g>
<defs>
<clipPath id="clip0_136_623">
<rect width="64" height="56.8889" fill="white"/>
</clipPath>
</defs>
</svg>
